wave.vcd
$date
     Oct 18, 2017       15:22:10
$end

$version
 SystemC 2.3.1-Accellera --- Sep 13 2017 20:05:22
$end

$timescale
     1 ps
$end

$scope module SystemC $end
$var wire    1  aaaaa  clk       $end
$var wire   32  aaaab  timer1_out [31:0]  $end
$var wire    1  aaaac  oc_outs       $end
$upscope $end
$enddefinitions  $end

$comment
All initial values are dumped below at time 0 sec = 0 timescale units.
$end

$dumpvars
1aaaaa
b0 aaaab
0aaaac
$end

#5000
0aaaaa

#10000
1aaaaa

#15000
0aaaaa

#20000
1aaaaa

#25000
0aaaaa

#30000
1aaaaa

#35000
0aaaaa

#40000
1aaaaa

#45000
0aaaaa

#50000
1aaaaa

#55000
0aaaaa

#60000
1aaaaa

#65000
0aaaaa

#70000
1aaaaa

#75000
0aaaaa

#80000
1aaaaa

#85000
0aaaaa

#90000
1aaaaa
b1 aaaab

#95000
0aaaaa

#100000
1aaaaa
b10 aaaab

#105000
0aaaaa

#110000
1aaaaa
b11 aaaab
1aaaac

#115000
0aaaaa

#120000
1aaaaa
b100 aaaab

#125000
0aaaaa

#130000
1aaaaa
b101 aaaab

#135000
0aaaaa

#140000
1aaaaa
b0 aaaab

#145000
0aaaaa

#150000
1aaaaa
b1 aaaab
0aaaac

#155000
0aaaaa

#160000
1aaaaa
b10 aaaab

#165000
0aaaaa

#170000
1aaaaa
b11 aaaab
1aaaac

#175000
0aaaaa

#180000
1aaaaa
b100 aaaab

#185000
0aaaaa

#190000
1aaaaa
b101 aaaab

#195000
0aaaaa

#200000
1aaaaa
b0 aaaab

#205000
0aaaaa

#210000
1aaaaa
b1 aaaab
0aaaac

#215000
0aaaaa

#220000
1aaaaa
b10 aaaab

#225000
0aaaaa

#230000
1aaaaa
b11 aaaab
1aaaac

#235000
0aaaaa

#240000
1aaaaa
b100 aaaab

#245000
0aaaaa

#250000
1aaaaa
b101 aaaab

#255000
0aaaaa

#260000
1aaaaa
b0 aaaab

#265000
0aaaaa

#270000
1aaaaa
b1 aaaab
0aaaac

#275000
0aaaaa

#280000
1aaaaa
b10 aaaab

